data/inverterTime/lastwiderstand50Hz100Ohm470nF.csv

Record Length,2500,Points,-2.4600001E-3,5.03999996,,Record Length,2500,Points,-2.4600001E-3,239.99999464E-3,
Sample Interval,9.999999747E-6,s,-2.4500000E-3,5.07999992,,Sample Interval,9.999999747E-6,s,-2.4500000E-3,239.99999464E-3,
Trigger Point,246.00001673,Samples,-2.4400002E-3,5.07999992,,Trigger Point,246.00001673,Samples,-2.4400002E-3,239.99999464E-3,
,,,-2.4300001E-3,5.07999992,,,,,-2.4300001E-3,199.99998808E-3,
,,,-2.4200000E-3,5.03999996,,,,,-2.4200000E-3,159.99999642E-3,
,,,-2.4100002E-3,5.03999996,,,,,-2.4100002E-3,239.99999464E-3,
Source,CH1,,-2.4000001E-3,5.07999992,,Source,CH2,,-2.4000001E-3,239.99999464E-3,
Vertical Units,Volts,,-2.3900000E-3,5.03999996,,Vertical Units,Volts,,-2.3900000E-3,239.99999464E-3,
Vertical Scale,1.000000,,-2.3800002E-3,5.07999992,,Vertical Scale,1.000000,,-2.3800002E-3,199.99998808E-3,
Vertical Offset,0,,-2.3700001E-3,5.07999992,,Vertical Offset,0,,-2.3700001E-3,159.99999642E-3,
Horizontal Units,s,,-2.3600000E-3,5.03999996,,Horizontal Units,s,,-2.3600000E-3,239.99999464E-3,
Horizontal Scale,2.4999999E-3,,-2.3500002E-3,5.03999996,,Horizontal Scale,2.4999999E-3,,-2.3500002E-3,199.99998808E-3,
Pt Fmt,Y,,-2.3400001E-3,5.03999996,,Pt Fmt,Y,,-2.3400001E-3,199.99998808E-3,
Yzero,-2.6800000,,-2.3300000E-3,5.07999992,,Yzero,-2.6400000,,-2.3300000E-3,199.99998808E-3,
Probe Atten,1.000000,,-2.3200002E-3,5.07999992,,Probe Atten,1.000000,,-2.3200002E-3,199.99998808E-3,
,,,-2.3100001E-3,5.03999996,,,,,-2.3100001E-3,199.99998808E-3,
Note,TDS 2024C - 17:48:58   07.06.2018,,-2.3000001E-3,5.03999996,,Note,TDS 2024C - 17:48:58   07.06.2018,,-2.3000001E-3,199.99998808E-3,
,,,-2.2900002E-3,5.03999996,,,,,-2.2900002E-3,199.99998808E-3,
,,,-2.2800001E-3,5.07999992,,,,,-2.2800001E-3,239.99999464E-3,
,,,-2.2700001E-3,5.03999996,,,,,-2.2700001E-3,199.99998808E-3,
,,,-2.2600002E-3,5.03999996,,,,,-2.2600002E-3,159.99999642E-3,
,,,-2.2500001E-3,5.07999992,,,,,-2.2500001E-3,199.99998808E-3,
,,,-2.2400001E-3,5.03999996,,,,,-2.2400001E-3,199.99998808E-3,
,,,-2.2300002E-3,5.07999992,,,,,-2.2300002E-3,239.99999464E-3,
,,,-2.2200001E-3,5.03999996,,,,,-2.2200001E-3,199.99998808E-3,
,,,-2.2100001E-3,5.07999992,,,,,-2.2100001E-3,239.99999464E-3,
,,,-2.2000002E-3,5.03999996,,,,,-2.2000002E-3,239.99999464E-3,
,,,-2.1900001E-3,5.03999996,,,,,-2.1900001E-3,239.99999464E-3,
,,,-2.1800001E-3,5.03999996,,,,,-2.1800001E-3,199.99998808E-3,
,,,-2.1700002E-3,5.07999992,,,,,-2.1700002E-3,199.99998808E-3,
,,,-2.1600001E-3,5.07999992,,,,,-2.1600001E-3,199.99998808E-3,
,,,-2.1500001E-3,5.07999992,,,,,-2.1500001E-3,199.99998808E-3,
,,,-2.1400000E-3,5.03999996,,,,,-2.1400000E-3,199.99998808E-3,
,,,-2.1300002E-3,5.03999996,,,,,-2.1300002E-3,199.99998808E-3,
,,,-2.1200001E-3,5.07999992,,,,,-2.1200001E-3,199.99998808E-3,
,,,-2.1100000E-3,5.03999996,,,,,-2.1100000E-3,239.99999464E-3,
,,,-2.1000002E-3,5.03999996,,,,,-2.1000002E-3,199.99998808E-3,
,,,-2.0900001E-3,5.07999992,,,,,-2.0900001E-3,199.99998808E-3,
,,,-2.0800000E-3,5.03999996,,,,,-2.0800000E-3,199.99998808E-3,
,,,-2.0700002E-3,5.07999992,,,,,-2.0700002E-3,159.99999642E-3,
,,,-2.0600001E-3,5.07999992,,,,,-2.0600001E-3,199.99998808E-3,
,,,-2.0500000E-3,5.07999992,,,,,-2.0500000E-3,199.99998808E-3,
,,,-2.0400002E-3,5.03999996,,,,,-2.0400002E-3,199.99998808E-3,
,,,-2.0300001E-3,5.03999996,,,,,-2.0300001E-3,199.99998808E-3,
,,,-2.0200000E-3,5.03999996,,,,,-2.0200000E-3,199.99998808E-3,
,,,-2.0100002E-3,5.03999996,,,,,-2.0100002E-3,199.99998808E-3,
,,,-2.0000001E-3,5.03999996,,,,,-2.0000001E-3,239.99999464E-3,
,,,-1.9900000E-3,5.03999996,,,,,-1.9900000E-3,159.99999642E-3,
,,,-1.9800002E-3,5.03999996,,,,,-1.9800002E-3,239.99999464E-3,
,,,-1.9700001E-3,5.07999992,,,,,-1.9700001E-3,239.99999464E-3,
,,,-1.9600000E-3,5.03999996,,,,,-1.9600000E-3,199.99998808E-3,
,,,-1.9500001E-3,5.07999992,,,,,-1.9500001E-3,199.99998808E-3,
,,,-1.9400001E-3,5.03999996,,,,,-1.9400001E-3,199.99998808E-3,
,,,-1.9300001E-3,5.03999996,,,,,-1.9300001E-3,199.99998808E-3,
,,,-1.9200001E-3,5.07999992,,,,,-1.9200001E-3,199.99998808E-3,
,,,-1.9100001E-3,5.03999996,,,,,-1.9100001E-3,199.99998808E-3,
,,,-1.9000001E-3,5.07999992,,,,,-1.9000001E-3,239.99999464E-3,
,,,-1.8900001E-3,5.00000000,,,,,-1.8900001E-3,239.99999464E-3,
,,,-1.8800001E-3,5.03999996,,,,,-1.8800001E-3,199.99998808E-3,
,,,-1.8700002E-3,5.07999992,,,,,-1.8700002E-3,199.99998808E-3,
,,,-1.8600001E-3,5.07999992,,,,,-1.8600001E-3,239.99999464E-3,
,,,-1.8500001E-3,5.03999996,,,,,-1.8500001E-3,199.99998808E-3,
,,,-1.8400002E-3,5.03999996,,,,,-1.8400002E-3,199.99998808E-3,
,,,-1.8300001E-3,5.03999996,,,,,-1.8300001E-3,199.99998808E-3,
,,,-1.8200001E-3,5.03999996,,,,,-1.8200001E-3,239.99999464E-3,
,,,-1.8100002E-3,5.07999992,,,,,-1.8100002E-3,199.99998808E-3,
,,,-1.8000001E-3,5.03999996,,,,,-1.8000001E-3,199.99998808E-3,
,,,-1.7900001E-3,5.00000000,,,,,-1.7900001E-3,199.99998808E-3,
,,,-1.7800002E-3,5.03999996,,,,,-1.7800002E-3,199.99998808E-3,
,,,-1.7700001E-3,5.07999992,,,,,-1.7700001E-3,199.99998808E-3,
,,,-1.7600001E-3,5.07999992,,,,,-1.7600001E-3,199.99998808E-3,
,,,-1.7500002E-3,5.00000000,,,,,-1.7500002E-3,199.99998808E-3,
,,,-1.7400001E-3,5.03999996,,,,,-1.7400001E-3,199.99998808E-3,
,,,-1.7300001E-3,5.03999996,,,,,-1.7300001E-3,199.99998808E-3,
,,,-1.7200002E-3,5.07999992,,,,,-1.7200002E-3,199.99998808E-3,
,,,-1.7100001E-3,5.07999992,,,,,-1.7100001E-3,199.99998808E-3,
,,,-1.7000001E-3,5.03999996,,,,,-1.7000001E-3,239.99999464E-3,
,,,-1.6900002E-3,5.07999992,,,,,-1.6900002E-3,199.99998808E-3,
,,,-1.6800001E-3,5.03999996,,,,,-1.6800001E-3,199.99998808E-3,
,,,-1.6700001E-3,5.00000000,,,,,-1.6700001E-3,199.99998808E-3,
,,,-1.6600001E-3,5.03999996,,,,,-1.6600001E-3,239.99999464E-3,
,,,-1.6500001E-3,5.03999996,,,,,-1.6500001E-3,239.99999464E-3,
,,,-1.6400001E-3,5.07999992,,,,,-1.6400001E-3,199.99998808E-3,
,,,-1.6300001E-3,5.07999992,,,,,-1.6300001E-3,199.99998808E-3,
,,,-1.6200001E-3,5.03999996,,,,,-1.6200001E-3,199.99998808E-3,
,,,-1.6100002E-3,5.03999996,,,,,-1.6100002E-3,199.99998808E-3,
,,,-1.6000001E-3,5.03999996,,,,,-1.6000001E-3,239.99999464E-3,
,,,-1.5900001E-3,5.03999996,,,,,-1.5900001E-3,199.99998808E-3,
,,,-1.5800002E-3,5.07999992,,,,,-1.5800002E-3,199.99998808E-3,
,,,-1.5700001E-3,5.07999992,,,,,-1.5700001E-3,199.99998808E-3,
,,,-1.5600001E-3,5.07999992,,,,,-1.5600001E-3,199.99998808E-3,
,,,-1.5500002E-3,5.03999996,,,,,-1.5500002E-3,239.99999464E-3,
,,,-1.5400001E-3,5.00000000,,,,,-1.5400001E-3,239.99999464E-3,
,,,-1.5300001E-3,5.03999996,,,,,-1.5300001E-3,199.99998808E-3,
,,,-1.5200002E-3,5.03999996,,,,,-1.5200002E-3,199.99998808E-3,
,,,-1.5100001E-3,5.07999992,,,,,-1.5100001E-3,239.99999464E-3,
,,,-1.5000001E-3,5.07999992,,,,,-1.5000001E-3,239.99999464E-3,
,,,-1.4900002E-3,5.07999992,,,,,-1.4900002E-3,239.99999464E-3,
,,,-1.4800001E-3,5.03999996,,,,,-1.4800001E-3,199.99998808E-3,
,,,-1.4700001E-3,5.03999996,,,,,-1.4700001E-3,199.99998808E-3,
,,,-1.4600002E-3,5.07999992,,,,,-1.4600002E-3,199.99998808E-3,
,,,-1.4500001E-3,5.07999992,,,,,-1.4500001E-3,239.99999464E-3,
,,,-1.4400001E-3,5.07999992,,,,,-1.4400001E-3,239.99999464E-3,
,,,-1.4300002E-3,5.00000000,,,,,-1.4300002E-3,239.99999464E-3,
,,,-1.4200001E-3,5.03999996,,,,,-1.4200001E-3,239.99999464E-3,
,,,-1.4100001E-3,5.03999996,,,,,-1.4100001E-3,199.99998808E-3,
,,,-1.4000002E-3,5.07999992,,,,,-1.4000002E-3,199.99998808E-3,
,,,-1.3900001E-3,5.07999992,,,,,-1.3900001E-3,239.99999464E-3,
,,,-1.3800001E-3,5.07999992,,,,,-1.3800001E-3,199.99998808E-3,
,,,-1.3700002E-3,5.03999996,,,,,-1.3700002E-3,199.99998808E-3,
,,,-1.3600001E-3,5.03999996,,,,,-1.3600001E-3,199.99998808E-3,
,,,-1.3500002E-3,5.03999996,,,,,-1.3500002E-3,239.99999464E-3,
,,,-1.3400002E-3,5.03999996,,,,,-1.3400002E-3,199.99998808E-3,
,,,-1.3300001E-3,5.07999992,,,,,-1.3300001E-3,199.99998808E-3,
,,,-1.3200002E-3,5.07999992,,,,,-1.3200002E-3,239.99999464E-3,
,,,-1.3100001E-3,5.03999996,,,,,-1.3100001E-3,159.99999642E-3,
,,,-1.3000001E-3,5.07999992,,,,,-1.3000001E-3,199.99998808E-3,
,,,-1.2900002E-3,5.07999992,,,,,-1.2900002E-3,199.99998808E-3,
,,,-1.2800001E-3,5.07999992,,,,,-1.2800001E-3,199.99998808E-3,
,,,-1.2700001E-3,5.07999992,,,,,-1.2700001E-3,199.99998808E-3,
,,,-1.2600002E-3,5.07999992,,,,,-1.2600002E-3,159.99999642E-3,
,,,-1.2500001E-3,5.03999996,,,,,-1.2500001E-3,199.99998808E-3,
,,,-1.2400001E-3,5.03999996,,,,,-1.2400001E-3,159.99999642E-3,
,,,-1.2300002E-3,5.03999996,,,,,-1.2300002E-3,199.99998808E-3,
,,,-1.2200001E-3,5.07999992,,,,,-1.2200001E-3,199.99998808E-3,
,,,-1.2100001E-3,5.07999992,,,,,-1.2100001E-3,199.99998808E-3,
,,,-1.2000002E-3,5.03999996,,,,,-1.2000002E-3,199.99998808E-3,
,,,-1.1900001E-3,5.07999992,,,,,-1.1900001E-3,199.99998808E-3,
,,,-1.1800001E-3,5.03999996,,,,,-1.1800001E-3,199.99998808E-3,
,,,-1.1700002E-3,5.07999992,,,,,-1.1700002E-3,199.99998808E-3,
,,,-1.1600001E-3,5.07999992,,,,,-1.1600001E-3,199.99998808E-3,
,,,-1.1500001E-3,5.03999996,,,,,-1.1500001E-3,239.99999464E-3,
,,,-1.1400002E-3,5.07999992,,,,,-1.1400002E-3,199.99998808E-3,
,,,-1.1300001E-3,5.07999992,,,,,-1.1300001E-3,239.99999464E-3,
,,,-1.1200001E-3,5.07999992,,,,,-1.1200001E-3,199.99998808E-3,
,,,-1.1100002E-3,5.03999996,,,,,-1.1100002E-3,239.99999464E-3,
,,,-1.1000001E-3,5.03999996,,,,,-1.1000001E-3,239.99999464E-3,
,,,-1.0900002E-3,5.07999992,,,,,-1.0900002E-3,199.99998808E-3,
,,,-1.0800002E-3,5.07999992,,,,,-1.0800002E-3,199.99998808E-3,
,,,-1.0700001E-3,5.03999996,,,,,-1.0700001E-3,159.99999642E-3,
,,,-1.0600002E-3,5.03999996,,,,,-1.0600002E-3,199.99998808E-3,
,,,-1.0500002E-3,5.07999992,,,,,-1.0500002E-3,199.99998808E-3,
,,,-1.0400001E-3,5.03999996,,,,,-1.0400001E-3,199.99998808E-3,
,,,-1.0300002E-3,5.07999992,,,,,-1.0300002E-3,199.99998808E-3,
,,,-1.0200001E-3,5.07999992,,,,,-1.0200001E-3,199.99998808E-3,
,,,-1.0100001E-3,5.03999996,,,,,-1.0100001E-3,199.99998808E-3,
,,,-1.0000002E-3,5.07999992,,,,,-1.0000002E-3,239.99999464E-3,
,,,-990.000087768E-6,5.07999992,,,,,-990.000087768E-6,239.99999464E-3,
,,,-980.000128038E-6,5.07999992,,,,,-980.000128038E-6,199.99998808E-3,
,,,-970.000168309E-6,5.03999996,,,,,-970.000168309E-6,199.99998808E-3,
,,,-960.000150371E-6,5.07999992,,,,,-960.000150371E-6,199.99998808E-3,
,,,-950.000132434E-6,5.07999992,,,,,-950.000132434E-6,199.99998808E-3,
,,,-940.000172704E-6,5.03999996,,,,,-940.000172704E-6,199.99998808E-3,
,,,-930.000154767E-6,5.03999996,,,,,-930.000154767E-6,199.99998808E-3,
,,,-920.000136830E-6,5.00000000,,,,,-920.000136830E-6,199.99998808E-3,
,,,-910.000118893E-6,5.03999996,,,,,-910.000118893E-6,199.99998808E-3,
,,,-900.000159163E-6,5.03999996,,,,,-900.000159163E-6,199.99998808E-3,
,,,-890.000141226E-6,5.03999996,,,,,-890.000141226E-6,199.99998808E-3,
,,,-880.000123288E-6,5.07999992,,,,,-880.000123288E-6,239.99999464E-3,
,,,-870.000163559E-6,5.07999992,,,,,-870.000163559E-6,199.99998808E-3,
,,,-860.000145622E-6,5.03999996,,,,,-860.000145622E-6,199.99998808E-3,
,,,-850.000127684E-6,5.07999992,,,,,-850.000127684E-6,199.99998808E-3,
,,,-840.000167955E-6,5.07999992,,,,,-840.000167955E-6,239.99999464E-3,
,,,-830.000150017E-6,5.07999992,,,,,-830.000150017E-6,199.99998808E-3,
,,,-820.000132080E-6,5.03999996,,,,,-820.000132080E-6,239.99999464E-3,
,,,-810.000172351E-6,5.07999992,,,,,-810.000172351E-6,199.99998808E-3,
,,,-800.000154413E-6,5.03999996,,,,,-800.000154413E-6,199.99998808E-3,
,,,-790.000136476E-6,5.03999996,,,,,-790.000136476E-6,199.99998808E-3,
,,,-780.000118539E-6,5.00000000,,,,,-780.000118539E-6,239.99999464E-3,
,,,-770.000158809E-6,5.07999992,,,,,-770.000158809E-6,199.99998808E-3,
,,,-760.000140872E-6,5.03999996,,,,,-760.000140872E-6,199.99998808E-3,
,,,-750.000122935E-6,5.00000000,,,,,-750.000122935E-6,239.99999464E-3,
,,,-740.000163205E-6,5.03999996,,,,,-740.000163205E-6,239.99999464E-3,
,,,-730.000145268E-6,5.03999996,,,,,-730.000145268E-6,199.99998808E-3,
,,,-720.000127330E-6,5.03999996,,,,,-720.000127330E-6,199.99998808E-3,
,,,-710.000167601E-6,5.03999996,,,,,-710.000167601E-6,239.99999464E-3,
,,,-700.000149664E-6,5.07999992,,,,,-700.000149664E-6,199.99998808E-3,
,,,-690.000131726E-6,5.07999992,,,,,-690.000131726E-6,199.99998808E-3,
,,,-680.000171997E-6,5.03999996,,,,,-680.000171997E-6,159.99999642E-3,
,,,-670.000154059E-6,5.03999996,,,,,-670.000154059E-6,239.99999464E-3,
,,,-660.000136122E-6,5.03999996,,,,,-660.000136122E-6,199.99998808E-3,
,,,-650.000176392E-6,5.03999996,,,,,-650.000176392E-6,199.99998808E-3,
,,,-640.000158455E-6,5.07999992,,,,,-640.000158455E-6,159.99999642E-3,
,,,-630.000140518E-6,5.07999992,,,,,-630.000140518E-6,159.99999642E-3,
,,,-620.000180788E-6,5.03999996,,,,,-620.000180788E-6,199.99998808E-3,
,,,-610.000162851E-6,5.03999996,,,,,-610.000162851E-6,199.99998808E-3,
,,,-600.000144914E-6,5.03999996,,,,,-600.000144914E-6,239.99999464E-3,
,,,-590.000126977E-6,5.03999996,,,,,-590.000126977E-6,239.99999464E-3,
,,,-580.000167247E-6,5.07999992,,,,,-580.000167247E-6,159.99999642E-3,
,,,-570.000149310E-6,5.03999996,,,,,-570.000149310E-6,239.99999464E-3,
,,,-560.000131372E-6,5.07999992,,,,,-560.000131372E-6,239.99999464E-3,
,,,-550.000171643E-6,5.03999996,,,,,-550.000171643E-6,239.99999464E-3,
,,,-540.000153705E-6,5.03999996,,,,,-540.000153705E-6,239.99999464E-3,
,,,-530.000135768E-6,5.03999996,,,,,-530.000135768E-6,199.99998808E-3,
,,,-520.000176039E-6,5.07999992,,,,,-520.000176039E-6,199.99998808E-3,
,,,-510.000158101E-6,5.07999992,,,,,-510.000158101E-6,239.99999464E-3,
,,,-500.000140164E-6,5.07999992,,,,,-500.000140164E-6,199.99998808E-3,
,,,-490.000180434E-6,5.03999996,,,,,-490.000180434E-6,239.99999464E-3,
,,,-480.000162497E-6,5.03999996,,,,,-480.000162497E-6,199.99998808E-3,
,,,-470.000144560E-6,5.03999996,,,,,-470.000144560E-6,199.99998808E-3,
,,,-460.000155726E-6,5.07999992,,,,,-460.000155726E-6,199.99998808E-3,
,,,-450.000166893E-6,5.03999996,,,,,-450.000166893E-6,239.99999464E-3,
,,,-440.000148956E-6,5.07999992,,,,,-440.000148956E-6,239.99999464E-3,
,,,-430.000160122E-6,5.07999992,,,,,-430.000160122E-6,199.99998808E-3,
,,,-420.000171289E-6,5.03999996,,,,,-420.000171289E-6,199.99998808E-3,
,,,-410.000153352E-6,5.07999992,,,,,-410.000153352E-6,199.99998808E-3,
,,,-400.00016452E-6,5.07999992,,,,,-400.00016452E-6,199.99998808E-3,
,,,-390.00014658E-6,5.07999992,,,,,-390.00014658E-6,239.99999464E-3,
,,,-380.00015775E-6,5.07999992,,,,,-380.00015775E-6,199.99998808E-3,
,,,-370.00016891E-6,5.00000000,,,,,-370.00016891E-6,199.99998808E-3,
,,,-360.00015098E-6,5.00000000,,,,,-360.00015098E-6,199.99998808E-3,
,,,-350.00016214E-6,5.03999996,,,,,-350.00016214E-6,239.99999464E-3,
,,,-340.00014421E-6,5.07999992,,,,,-340.00014421E-6,239.99999464E-3,
,,,-330.00015537E-6,5.03999996,,,,,-330.00015537E-6,199.99998808E-3,
,,,-320.00016654E-6,5.07999992,,,,,-320.00016654E-6,199.99998808E-3,
,,,-310.00014860E-6,5.03999996,,,,,-310.00014860E-6,199.99998808E-3,
,,,-300.00015977E-6,5.07999992,,,,,-300.00015977E-6,199.99998808E-3,
,,,-290.00017093E-6,5.03999996,,,,,-290.00017093E-6,199.99998808E-3,
,,,-280.00015300E-6,5.07999992,,,,,-280.00015300E-6,199.99998808E-3,
,,,-270.00016416E-6,5.03999996,,,,,-270.00016416E-6,239.99999464E-3,
,,,-260.00017533E-6,5.07999992,,,,,-260.00017533E-6,199.99998808E-3,
,,,-250.00015739E-6,5.03999996,,,,,-250.00015739E-6,199.99998808E-3,
,,,-240.00016856E-6,5.07999992,,,,,-240.00016856E-6,199.99998808E-3,
,,,-230.00016517E-6,5.03999996,,,,,-230.00016517E-6,199.99998808E-3,
,,,-220.00016179E-6,5.03999996,,,,,-220.00016179E-6,199.99998808E-3,
,,,-210.00015840E-6,5.03999996,,,,,-210.00015840E-6,199.99998808E-3,
,,,-200.00015502E-6,5.00000000,,,,,-200.00015502E-6,239.99999464E-3,
,,,-190.00016619E-6,5.07999992,,,,,-190.00016619E-6,199.99998808E-3,
,,,-180.00016280E-6,5.07999992,,,,,-180.00016280E-6,199.99998808E-3,
,,,-170.00015941E-6,5.03999996,,,,,-170.00015941E-6,199.99998808E-3,
,,,-160.00017058E-6,5.03999996,,,,,-160.00017058E-6,199.99998808E-3,
,,,-150.00016720E-6,5.03999996,,,,,-150.00016720E-6,199.99998808E-3,
,,,-140.0001638E-6,5.03999996,,,,,-140.0001638E-6,199.99998808E-3,
,,,-130.0001604E-6,5.03999996,,,,,-130.0001604E-6,199.99998808E-3,
,,,-120.0001643E-6,5.03999996,,,,,-120.0001643E-6,199.99998808E-3,
,,,-110.0001682E-6,5.03999996,,,,,-110.0001682E-6,239.99999464E-3,
,,,-100.0001648E-6,5.07999992,,,,,-100.0001648E-6,239.99999464E-3,
,,,-90.000161435E-6,5.03999996,,,,,-90.000161435E-6,199.99998808E-3,
,,,-80.000165326E-6,5.07999992,,,,,-80.000165326E-6,199.99998808E-3,
,,,-70.000169217E-6,5.03999996,,,,,-70.000169217E-6,199.99998808E-3,
,,,-60.000165831E-6,5.07999992,,,,,-60.000165831E-6,199.99998808E-3,
,,,-50.00016608E-6,5.03999996,,,,,-50.00016608E-6,199.99998808E-3,
,,,-40.00016634E-6,5.07999992,,,,,-40.00016634E-6,199.99998808E-3,
,,,-30.00016659E-6,5.03999996,,,,,-30.00016659E-6,199.99998808E-3,
,,,-20.0001668E-6,5.03999996,,,,,-20.0001668E-6,199.99998808E-3,
,,,-10.0001671E-6,5.03999996,,,,,-10.0001671E-6,199.99998808E-3,
,,,-167.34702444E-12,0.0,,,,,-167.34702444E-12,280.00000119E-3,
,,,9.999832400E-6,-39.99999911E-3,,,,,9.999832400E-6,1.2800000,
,,,19.9998321E-6,-39.99999911E-3,,,,,19.9998321E-6,2.0000000,
,,,29.99983190E-6,-39.99999911E-3,,,,,29.99983190E-6,2.6399999,
,,,39.99983164E-6,-39.99999911E-3,,,,,39.99983164E-6,3.11999989,
,,,49.99983139E-6,-39.99999911E-3,,,,,49.99983139E-6,3.51999998,
,,,59.999831137E-6,-39.99999911E-3,,,,,59.999831137E-6,3.83999991,
,,,69.999834523E-6,-39.99999911E-3,,,,,69.999834523E-6,4.07999992,
,,,79.999830632E-6,0.0,,,,,79.999830632E-6,4.27999973,
,,,89.999826741E-6,-39.99999911E-3,,,,,89.999826741E-6,4.40000010,
,,,99.999830127E-6,-39.99999911E-3,,,,,99.999830127E-6,4.59999990,
,,,109.9998335E-6,-39.99999911E-3,,,,,109.9998335E-6,4.63999987,
,,,119.9998296E-6,0.0,,,,,119.9998296E-6,4.71999979,
,,,129.9998257E-6,-39.99999911E-3,,,,,129.9998257E-6,4.79999971,
,,,139.9998291E-6,-39.99999911E-3,,,,,139.9998291E-6,4.83999968,
,,,149.99983250E-6,0.0,,,,,149.99983250E-6,4.88000011,
,,,159.99982134E-6,0.0,,,,,159.99982134E-6,4.92000008,
,,,169.99982472E-6,-39.99999911E-3,,,,,169.99982472E-6,4.96000004,
,,,179.99982811E-6,-39.99999911E-3,,,,,179.99982811E-6,4.96000004,
,,,189.99983149E-6,-39.99999911E-3,,,,,189.99983149E-6,5.00000000,
,,,199.99983488E-6,0.0,,,,,199.99983488E-6,5.00000000,
,,,209.99982371E-6,-39.99999911E-3,,,,,209.99982371E-6,5.03999996,
,,,219.99982710E-6,-39.99999911E-3,,,,,219.99982710E-6,5.03999996,
,,,229.99983048E-6,-39.99999911E-3,,,,,229.99983048E-6,5.03999996,
,,,239.99981931E-6,-39.99999911E-3,,,,,239.99981931E-6,5.07999992,
,,,249.99983725E-6,-39.99999911E-3,,,,,249.99983725E-6,5.03999996,
,,,259.99982608E-6,-39.99999911E-3,,,,,259.99982608E-6,5.03999996,
,,,269.99981492E-6,0.0,,,,,269.99981492E-6,5.07999992,
,,,279.99983286E-6,0.0,,,,,279.99983286E-6,5.07999992,
,,,289.99982169E-6,-39.99999911E-3,,,,,289.99982169E-6,5.03999996,
,,,299.99983963E-6,-39.99999911E-3,,,,,299.99983963E-6,5.07999992,
,,,309.99982846E-6,-39.99999911E-3,,,,,309.99982846E-6,5.03999996,
,,,319.99981729E-6,-39.99999911E-3,,,,,319.99981729E-6,5.03999996,
,,,329.99983523E-6,-39.99999911E-3,,,,,329.99983523E-6,5.07999992,
,,,339.99982406E-6,-39.99999911E-3,,,,,339.99982406E-6,5.07999992,
,,,349.99981290E-6,-39.99999911E-3,,,,,349.99981290E-6,5.03999996,
,,,359.99983083E-6,-39.99999911E-3,,,,,359.99983083E-6,5.07999992,
,,,369.99981967E-6,-39.99999911E-3,,,,,369.99981967E-6,5.07999992,
,,,379.99980850E-6,-39.99999911E-3,,,,,379.99980850E-6,5.07999992,
,,,389.99982644E-6,-39.99999911E-3,,,,,389.99982644E-6,5.07999992,
,,,399.99981527E-6,-39.99999911E-3,,,,,399.99981527E-6,5.07999992,
,,,409.999833209E-6,0.0,,,,,409.999833209E-6,5.03999996,
,,,419.999822043E-6,-39.99999911E-3,,,,,419.999822043E-6,5.03999996,
,,,429.999810876E-6,0.0,,,,,429.999810876E-6,5.07999992,
,,,439.999828814E-6,-39.99999911E-3,,,,,439.999828814E-6,5.03999996,
,,,449.999817647E-6,-79.999998212E-3,,,,,449.999817647E-6,5.07999992,
,,,459.999835584E-6,-39.99999911E-3,,,,,459.999835584E-6,5.03999996,
,,,469.999824418E-6,-39.99999911E-3,,,,,469.999824418E-6,5.03999996,
,,,479.999813251E-6,0.0,,,,,479.999813251E-6,5.07999992,
,,,489.999831188E-6,0.0,,,,,489.999831188E-6,5.07999992,
